{
  "data": [
    {
      "id": "62466c57059a400235acad0b",
      "store": "Xerex",
      "cuit": "22-8229518-0",
      "concept1": 7863,
      "concept2": 6554,
      "concept3": 2314,
      "concept4": 3268,
      "concept5": 1126,
      "concept6": 2601,
      "total": 5606,
      "is_active": false,
      "registered": "02/07/2014"
    },
    {
      "id": "62466c576d67f7f72983b5c5",
      "store": "Mangelica",
      "cuit": "23-5990228-7",
      "concept1": 7540,
      "concept2": 1686,
      "concept3": 3693,
      "concept4": 3782,
      "concept5": 661,
      "concept6": 9109,
      "total": 1210,
      "is_active": false,
      "registered": "01/04/2016"
    },
    {
      "id": "62466c57e1bf61383fc2db0c",
      "store": "Zentix",
      "cuit": "21-5563985-4",
      "concept1": 6806,
      "concept2": 4154,
      "concept3": 286,
      "concept4": 1495,
      "concept5": 8754,
      "concept6": 1195,
      "total": 5565,
      "is_active": false,
      "registered": "07/02/2021"
    },
    {
      "id": "62466c57257e636cb0818084",
      "store": "Talae",
      "cuit": "23-8321890-7",
      "concept1": 8065,
      "concept2": 5882,
      "concept3": 8399,
      "concept4": 4296,
      "concept5": 1144,
      "concept6": 9879,
      "total": 6296,
      "is_active": false,
      "registered": "20/05/2018"
    },
    {
      "id": "62466c575db1e3bd3fe0c903",
      "store": "Housedown",
      "cuit": "20-6066600-1",
      "concept1": 7190,
      "concept2": 8732,
      "concept3": 6117,
      "concept4": 9174,
      "concept5": 8803,
      "concept6": 3347,
      "total": 8885,
      "is_active": false,
      "registered": "03/07/2014"
    },
    {
      "id": "62466c57d502c527615ddd1c",
      "store": "Pholio",
      "cuit": "23-6310347-5",
      "concept1": 6193,
      "concept2": 6624,
      "concept3": 1299,
      "concept4": 8824,
      "concept5": 8706,
      "concept6": 5836,
      "total": 5110,
      "is_active": true,
      "registered": "10/01/2016"
    },
    {
      "id": "62466c575f361631b6c5a31b",
      "store": "Liquidoc",
      "cuit": "22-7434631-2",
      "concept1": 7324,
      "concept2": 5495,
      "concept3": 9703,
      "concept4": 214,
      "concept5": 5293,
      "concept6": 2132,
      "total": 996,
      "is_active": false,
      "registered": "10/08/2019"
    },
    {
      "id": "62466c576d671853a45c25b1",
      "store": "Metroz",
      "cuit": "22-8616704-1",
      "concept1": 7057,
      "concept2": 2284,
      "concept3": 4407,
      "concept4": 9725,
      "concept5": 1416,
      "concept6": 5266,
      "total": 1365,
      "is_active": false,
      "registered": "03/12/2021"
    },
    {
      "id": "62466c57bc25e36370e648a5",
      "store": "Vicon",
      "cuit": "21-8905549-7",
      "concept1": 2989,
      "concept2": 2899,
      "concept3": 9614,
      "concept4": 6678,
      "concept5": 5784,
      "concept6": 6937,
      "total": 3723,
      "is_active": false,
      "registered": "10/09/2020"
    },
    {
      "id": "62466c57a787234d7bfd5457",
      "store": "Baluba",
      "cuit": "23-6876952-2",
      "concept1": 6551,
      "concept2": 4510,
      "concept3": 8485,
      "concept4": 8276,
      "concept5": 3226,
      "concept6": 1516,
      "total": 5480,
      "is_active": false,
      "registered": "28/02/2016"
    }
  ],
  "page": 1,
  "pages": 1000000,
  "rowsPerPage": 10,
  "total": 10000000
}